…
To explore the importance of cushion-forming plant species as foundation species in the alpine.

Meta-data

A set of data collected by ecologists globally at their respective alpine study sites. Sampling was structured using the dominant plant species at high-elevation meadows. The dominant lifeform used was cushion-forming, and association patterns of the local plant species with cushions relative to open microsites were recorded.

Meta-data-QA

library(tidyverse)
#meta-data check
meta.data <- read_csv("data/cushion_site_metadata.csv")
meta.data

## # A tibble: 90 x 12
##       ID `site name` `Alternative site name (if different)` country
##    <int>       <chr>                                  <chr>   <chr>
##  1     1    Ecuador1                                   <NA> Ecuador
##  2     2    Ecuador1                                   <NA> Ecuador
##  3     3    Ecuador2                                   <NA> Ecuador
##  4     4    Ecuador2                                   <NA> Ecuador
##  5     5     Atacama                              Altiplano   Chile
##  6     8       Elqui                              La Serena   Chile
##  7     9       Elqui                              La Serena   Chile
##  8    11 Franciscano                             Farellonas   Chile
##  9    12 Tres Puntas                             Farellonas   Chile
## 10    13    La Parva                             Farellonas   Chile
## # ... with 80 more rows, and 8 more variables: `cushion spp
## #   (Genus_species)` <chr>, lat <dbl>, long <dbl>, `est alt (m)` <int>,
## #   `lat/long source` <chr>, `recorder(s)` <chr>, `e-mail/contact` <chr>,
## #   `date (year)` <int>
…
#data
data <- read_csv("data/global_cushion_community_data.csv")

#quick check
#library(devtools)
#devtools::install_github("hadley/colformat")
#devtools::install_github("ropenscilabs/skimr")
#view summary stats across entire df
library(skimr)
d <- skim(data)
d

## Numeric Variables
## # A tibble: 1,036 x 13
##                        var    type missing complete     n         mean
##                      <chr>   <chr>   <dbl>    <dbl> <dbl>        <dbl>
##  1 Abrotanella_inconspicua integer       0    12280 12280 2.035831e-03
##  2          Abrotanella_sp integer       0    12280 12280 1.791531e-03
##  3       Acaena_antarctica integer       0    12280 12280 7.328990e-04
##  4         Acaena_diminuta integer       0    12280 12280 4.071661e-04
##  5      Acaena_leptacantha integer       0    12280 12280 3.420195e-03
##  6     Acaena_macrocephala integer       0    12280 12280 1.938111e-02
##  7      Acaena_magellanica integer       0    12280 12280 2.442997e-03
##  8      Acaena_pinnatifida integer       0    12280 12280 1.384365e-02
##  9               Acaena_sp integer       0    12280 12280 7.328990e-03
## 10              Acaena_sp1 integer       0    12280 12280 8.143322e-05
## # ... with 1,026 more rows, and 7 more variables: sd <dbl>, min <dbl>,
## #   `25% quantile` <dbl>, median <dbl>, `75% quantile` <dbl>, max <dbl>,
## #   hist <chr>
## 
## Character Variables
…
